Voto_test,Crediti_convoto,Voto_medio,CdS_encoded,Coorte_encoded,Genere_encoded,Scuola_provenienza_encoded,Esame_Matematica_encoded,Crediti_Matematica_encoded
14.0,12,22,1,0,0,8,0,0
16.0,33,21,0,0,1,7,0,0
15.0,45,27,0,1,1,7,0,0
5.0,24,23,1,3,1,7,0,0
12.0,57,28,0,6,1,7,0,0
21.0,39,23,2,1,0,7,0,1
21.0,39,26,2,3,0,7,0,1
19.0,27,23,0,3,1,7,0,0
16.0,24,29,1,2,1,7,0,0
17.0,12,28,0,1,1,4,0,0
21.0,21,23,0,5,0,7,0,0
15.5,48,24,2,6,0,4,0,1
19.0,24,25,1,5,1,0,0,0
10.0,45,26,0,6,1,7,0,0
21.0,39,23,2,3,1,7,0,1
16.0,18,19,0,4,0,8,0,0
19.0,15,21,2,4,1,7,0,1
22.0,42,23,0,4,1,7,0,0
16.0,48,25,2,0,0,7,0,1
18.75,33,26,1,6,1,7,0,0
19.0,39,26,2,1,0,0,0,1
23.0,51,26,0,4,0,7,0,0
17.0,48,24,2,2,1,5,0,1
8.75,45,23,0,6,1,5,0,0
23.0,48,29,2,3,1,7,0,1
21.0,12,24,1,3,1,4,0,0
23.0,48,25,2,5,1,7,0,1
12.0,21,22,0,6,1,7,0,0
16.0,45,26,1,2,1,7,0,0
4.25,39,22,2,6,0,5,0,1
9.25,57,28,0,6,1,7,0,0
22.0,57,30,0,0,1,7,0,0
15.0,24,20,0,3,1,4,0,0
9.0,12,25,1,3,0,9,0,0
10.5,48,30,1,6,1,4,0,0
12.0,36,22,1,5,1,7,0,0
19.0,24,24,1,1,1,7,0,0
23.0,48,30,2,1,1,7,0,1
22.0,45,29,1,4,1,7,0,0
20.0,39,28,2,1,0,0,0,1
17.0,36,28,1,4,1,4,0,0
16.0,48,24,2,4,0,7,0,1
5.5,12,29,1,6,1,8,0,0
15.0,48,26,1,3,1,9,0,0
18.0,39,23,2,2,1,7,0,1
13.5,57,31,1,6,1,7,0,0
16.0,36,24,1,2,1,7,0,0
19.0,15,18,2,1,0,6,0,1
20.0,45,24,0,4,1,7,0,0
10.25,24,23,0,6,1,7,0,0
24.0,48,24,2,0,1,7,0,1
24.0,27,25,0,4,1,7,0,0
18.0,57,25,0,1,0,7,0,0
21.0,45,25,0,2,0,7,0,0
14.0,12,21,0,5,1,7,0,0
14.0,39,25,2,2,0,7,0,1
13.5,45,28,0,6,1,7,0,0
9.0,33,23,1,2,0,9,0,0
12.0,57,27,0,6,1,7,0,0
21.0,57,28,0,2,1,7,0,0
12.0,24,24,1,4,1,8,0,0
7.0,36,23,1,5,1,6,0,0
12.0,48,27,1,1,1,4,0,0
22.0,27,24,0,0,1,5,0,0
15.0,39,23,2,2,0,7,0,1
16.0,36,27,1,4,0,8,0,0
9.75,27,21,0,6,1,7,0,0
9.5,45,25,1,6,0,7,0,0
14.0,24,21,1,2,1,4,0,0
15.0,45,27,1,2,1,4,0,0
25.0,57,28,0,3,1,5,0,0
11.0,48,26,0,2,1,4,0,0
21.0,48,30,2,1,0,7,0,1
25.0,39,26,2,3,1,4,0,1
16.0,15,23,2,4,1,5,0,1
13.0,36,26,0,1,0,5,0,0
24.0,24,20,2,4,0,7,0,1
18.0,57,26,0,3,0,7,0,0
25.0,57,30,0,5,1,7,0,0
25.0,48,27,2,5,1,5,0,1
24.0,57,29,0,1,0,5,0,0
23.0,45,25,0,5,1,7,0,0
20.0,57,23,0,2,1,7,0,0
20.0,27,21,0,5,0,7,0,0
13.0,36,24,1,1,1,7,0,0
21.0,39,22,0,2,1,7,0,0
24.0,15,18,2,1,1,7,0,1
17.0,39,27,0,2,0,5,0,0
22.0,57,24,0,3,0,7,0,0
21.0,57,23,0,0,0,7,0,0
25.0,48,28,2,4,1,7,0,1
18.0,27,22,0,3,0,9,0,0
21.0,57,29,1,0,1,4,0,0
17.75,45,24,1,6,1,4,0,0
18.0,57,25,0,3,0,5,0,0
16.0,15,22,2,4,0,5,0,1
19.0,57,28,0,2,1,7,0,0
15.0,18,19,0,3,0,7,0,0
18.0,57,26,0,0,0,7,0,0
20.0,57,30,2,6,1,7,0,1
13.0,12,20,1,2,0,7,0,0
12.0,12,26,0,1,1,7,0,0
9.0,9,19,1,6,1,7,0,0
14.0,33,25,1,5,1,4,0,0
19.0,39,28,0,4,1,4,0,0
20.0,51,26,0,2,1,7,0,0
19.0,48,29,2,1,1,7,0,1
19.0,18,22,0,4,0,7,0,0
23.0,15,26,0,4,1,0,0,0
20.0,45,27,1,2,1,4,0,0
23.0,42,24,2,1,1,7,0,1
20.0,57,27,0,2,0,7,0,0
14.0,24,24,2,6,1,7,0,1
12.0,12,18,1,0,1,4,0,0
25.0,45,26,0,3,1,7,0,0
22.0,57,28,0,0,1,7,0,0
20.0,36,26,1,5,1,7,0,0
14.0,57,26,0,2,0,5,0,0
21.0,30,23,2,1,0,7,0,1
18.0,57,26,0,1,1,4,0,0
18.0,12,23,1,1,1,7,0,0
20.0,57,25,1,3,1,4,0,0
8.0,48,25,1,4,1,8,0,0
18.0,30,20,0,0,1,5,0,0
22.0,48,27,2,1,0,7,0,1
21.0,30,30,2,2,1,7,0,1
12.5,33,30,1,6,1,4,0,0
19.0,39,24,2,4,0,7,0,1
10.75,27,25,0,6,1,7,0,0
16.0,45,28,0,1,1,4,0,0
23.0,57,29,2,5,1,7,0,1
18.0,39,22,2,4,0,7,0,1
11.0,24,26,1,5,1,4,0,0
20.0,21,23,0,5,0,7,0,0
11.0,12,23,1,4,1,4,0,0
14.0,45,24,1,6,1,7,0,0
25.0,57,31,1,3,1,4,0,0
15.0,36,24,1,2,1,7,0,0
18.0,57,27,0,0,1,4,0,0
3.75,36,30,1,6,1,4,0,0
14.0,24,23,1,4,1,7,0,0
14.0,24,25,1,2,1,7,0,0
18.0,24,31,1,0,1,4,0,0
16.0,45,27,0,1,0,7,0,0
23.0,39,28,0,1,1,4,0,0
0.0,24,24,1,1,1,7,0,0
15.0,33,23,0,5,0,7,0,0
22.0,39,24,0,5,0,7,0,0
16.0,24,25,1,0,1,8,0,0
19.0,57,29,1,0,0,7,0,0
11.0,57,30,2,6,1,7,0,1
20.0,12,18,0,5,1,7,0,0
24.0,21,22,0,0,0,7,0,0
15.0,24,24,0,3,1,7,0,0
22.0,36,27,1,0,1,7,0,0
14.0,12,27,1,2,1,4,0,0
11.0,12,25,1,5,1,7,0,0
22.0,51,23,0,4,1,7,0,0
16.0,57,27,1,4,0,4,0,0
7.5,45,27,1,6,0,6,0,0
15.25,57,30,2,6,1,7,0,1
19.0,48,30,1,4,1,4,0,0
21.0,45,27,1,4,0,5,0,0
17.0,33,25,1,5,1,7,0,0
24.0,27,27,0,3,1,7,0,0
24.0,48,22,2,0,0,7,0,1
15.0,12,23,1,5,1,4,0,0
24.0,57,31,2,5,1,7,0,1
21.0,33,29,2,4,1,7,0,1
24.0,48,28,2,5,1,7,0,1
19.0,39,28,0,3,1,7,0,0
22.0,51,25,0,4,1,7,0,0
15.0,15,18,2,0,0,7,0,1
25.0,39,24,2,3,0,7,0,1
13.0,36,28,1,1,1,8,0,0
24.0,57,30,1,2,1,4,0,0
24.0,57,29,0,1,1,5,0,0
23.0,57,29,0,2,1,7,0,0
13.0,48,25,1,4,1,8,0,0
20.0,45,28,1,4,1,8,0,0
13.0,24,23,1,1,1,8,0,0
23.0,57,27,0,2,1,7,0,0
18.0,33,24,0,2,0,7,0,0
19.0,57,30,1,2,1,4,0,0
15.0,36,28,1,2,0,5,0,0
16.0,57,26,1,2,1,7,0,0
17.0,57,23,0,1,1,0,0,0
12.0,33,24,1,4,1,4,0,0
16.0,33,22,0,1,1,7,0,0
11.75,33,25,0,6,0,7,0,0
14.25,48,29,2,6,1,7,0,1
21.0,15,26,2,4,0,7,0,1
21.0,39,25,2,4,1,7,0,1
19.0,57,27,1,5,1,8,0,0
16.0,24,20,1,4,1,4,0,0
15.0,12,27,1,5,0,7,0,0
18.0,57,27,0,1,1,5,0,0
25.0,57,30,0,0,1,7,0,0
17.0,12,25,1,1,1,7,0,0
19.0,48,30,1,4,0,7,0,0
19.0,57,26,0,0,1,7,0,0
18.0,45,26,0,0,0,7,0,0
11.75,57,30,0,6,1,7,0,0
17.0,39,26,0,3,1,5,0,0
8.0,12,23,1,3,1,4,0,0
19.0,57,25,2,3,1,7,0,1
21.0,36,28,1,4,1,4,0,0
18.0,57,28,2,0,1,7,0,1
0.0,24,27,0,1,1,7,0,0
16.0,36,25,1,2,1,7,0,0
20.0,57,27,0,3,1,7,0,0
10.0,36,25,1,2,1,4,0,0
10.0,36,23,1,2,1,5,0,0
13.0,24,26,1,5,0,8,0,0
15.0,30,21,2,3,1,7,0,1
4.0,24,24,1,6,1,0,0,0
16.0,57,24,0,3,0,7,0,0
19.0,57,25,1,1,1,7,0,0
17.0,48,27,2,3,0,7,0,1
20.0,39,21,2,1,0,7,0,1
18.0,30,22,2,1,1,7,0,1
13.0,0,0,1,1,1,7,0,0
16.0,21,20,0,5,1,7,0,0
18.0,48,29,1,3,1,9,0,0
9.75,33,22,0,6,1,7,0,0
11.0,12,28,1,5,1,4,0,0
21.0,57,25,0,0,1,7,0,0
19.0,39,26,0,0,0,7,0,0
12.0,12,27,1,3,0,7,0,0
18.0,33,22,0,5,1,7,0,0
12.0,15,19,2,3,0,9,0,1
15.0,48,28,2,2,1,5,0,1
11.25,33,28,1,6,1,8,0,0
17.0,48,23,1,3,1,4,0,0
14.0,12,27,1,1,1,4,0,0
22.0,57,28,0,4,1,7,0,0
16.0,33,24,0,3,0,7,0,0
23.0,57,29,0,5,1,7,0,0
9.75,57,25,1,6,1,4,0,0
15.25,57,26,0,6,1,7,0,0
23.0,42,24,2,1,1,7,0,0
16.0,33,21,0,0,1,7,0,0
17.0,21,22,0,4,1,7,0,0
21.0,57,28,0,0,0,7,0,0
14.0,45,27,1,0,0,0,0,0
20.0,57,26,0,4,1,7,0,0
6.0,24,24,1,6,0,7,0,0
25.0,48,31,2,3,1,7,0,1
10.25,48,28,2,6,0,7,0,1
21.0,48,28,2,3,1,7,0,1
11.75,24,25,0,6,1,5,0,0
13.0,21,28,1,2,0,7,0,0
14.0,24,26,1,4,1,7,0,0
21.0,39,25,2,2,0,5,0,1
19.0,30,24,2,2,0,7,0,1
24.0,9,25,0,3,0,4,0,0
14.0,24,27,1,5,1,4,0,0
11.0,45,27,1,2,1,4,0,0
11.0,18,25,0,4,1,5,0,0
15.0,24,23,0,1,1,4,0,0
9.5,45,29,1,6,1,4,0,0
18.0,57,30,1,4,1,7,0,0
23.0,57,26,0,1,1,7,0,0
22.0,57,30,1,5,0,7,0,0
8.0,39,27,2,2,0,5,0,1
25.0,57,27,0,5,0,7,0,0
19.0,51,27,0,3,1,5,0,0
14.0,48,25,2,6,0,7,0,1
19.0,30,24,2,1,0,7,0,1
11.0,45,27,1,2,1,4,0,0
5.25,36,26,1,6,1,4,0,0
18.0,30,23,0,2,1,7,0,0
23.0,57,27,0,1,0,7,0,0
12.75,30,21,2,6,0,7,0,1
13.0,24,23,1,2,1,4,0,0
19.0,30,23,0,3,1,7,0,0
13.0,0,0,0,5,0,0,0,0
18.0,33,21,0,4,1,7,0,0
8.0,24,26,1,3,1,4,0,0
22.0,57,30,0,2,1,7,0,0
17.0,48,29,2,1,1,7,0,1
8.0,12,20,1,3,1,4,0,0
16.0,36,25,1,4,0,7,0,0
23.0,57,27,2,5,0,7,0,1
24.0,57,30,0,2,1,7,0,0
20.0,57,28,0,2,1,7,0,0
12.0,36,29,1,3,1,4,0,0
17.0,15,19,2,0,0,8,0,1
23.0,57,30,0,1,1,7,0,0
22.0,15,29,2,1,1,7,0,1
24.0,48,26,2,4,1,7,0,1
17.0,9,20,1,0,1,7,0,0
20.0,27,23,0,5,0,7,0,0
18.0,21,21,0,1,1,7,0,0
10.0,24,25,1,0,1,4,0,0
22.0,27,25,0,3,1,7,0,0
8.0,15,18,2,6,0,7,0,1
18.0,48,27,2,2,0,7,0,1
17.0,21,23,2,0,1,7,0,1
21.0,45,25,0,5,0,7,0,0
16.0,36,23,1,2,1,4,0,0
20.0,48,24,2,4,0,7,0,1
12.75,45,24,0,6,1,7,0,0
11.25,57,22,0,6,1,7,0,0
24.0,48,28,2,5,1,7,0,1
18.0,21,24,0,2,0,7,0,0
13.0,45,25,0,2,0,7,0,0
23.0,30,25,2,1,0,7,0,1
12.0,30,24,0,1,0,7,0,0
13.0,12,22,1,0,1,8,0,0
21.0,48,26,2,4,0,7,0,1
24.0,57,29,0,2,1,7,0,0
21.0,48,28,1,3,1,9,0,0
19.0,33,26,1,1,1,7,0,0
13.0,24,26,1,5,0,7,0,0
14.75,45,26,0,6,1,7,0,0
23.0,45,24,0,0,1,7,0,0
15.0,30,21,2,1,0,0,0,1
18.0,48,24,2,1,1,5,0,1
15.0,15,20,2,1,1,7,0,1
16.0,57,27,1,2,1,4,0,0
12.0,36,23,1,4,1,4,0,0
13.0,24,29,1,5,1,8,0,0
21.0,54,23,0,0,1,7,0,0
23.0,57,27,0,3,1,7,0,0
18.0,57,27,0,4,1,5,0,0
22.0,39,26,2,2,1,7,0,1
16.0,30,25,2,3,1,7,0,1
17.0,18,19,2,0,0,7,0,0
15.0,30,28,2,2,0,7,0,1
23.0,39,23,0,3,1,7,0,0
22.0,33,22,0,5,1,7,0,0
18.0,39,28,2,2,0,7,0,1
23.0,24,23,1,4,1,7,0,0
20.0,30,24,2,0,0,7,0,1
16.0,42,24,0,0,1,7,0,0
14.0,33,25,0,2,1,4,0,0
6.75,57,27,0,6,1,6,0,0
17.0,9,22,0,5,0,7,0,0
5.0,24,27,1,6,1,8,0,0
22.0,24,23,2,5,0,0,0,1
24.0,39,25,0,3,1,7,0,0
15.0,45,23,0,2,1,7,0,0
19.0,57,26,1,5,1,4,0,0
24.0,57,27,0,3,1,7,0,0
23.0,57,28,0,5,1,0,0,0
19.0,39,27,2,3,0,7,0,1
4.0,24,27,1,6,1,8,0,0
24.0,30,26,2,0,1,7,0,1
8.75,12,27,1,6,0,6,0,0
7.0,36,25,1,6,1,4,0,0
20.0,45,24,1,4,1,7,0,0
18.75,57,31,2,6,1,7,0,1
25.0,57,28,0,0,1,7,0,0
23.0,0,0,2,4,0,7,0,1
24.0,21,22,0,3,1,7,0,0
18.0,30,18,2,0,0,7,0,1
21.0,57,28,0,3,0,7,0,0
23.0,57,27,0,0,1,7,0,0
24.0,24,23,1,3,1,7,0,0
15.0,57,24,0,1,1,5,0,0
8.75,48,21,2,6,0,7,0,1
12.75,48,26,2,6,1,7,0,1
17.0,24,27,1,3,1,5,0,0
5.5,24,22,1,6,1,8,0,0
15.0,48,28,1,3,1,7,0,0
25.0,45,24,0,5,1,7,0,0
8.0,36,30,1,6,1,8,0,0
19.0,27,20,0,4,1,7,0,0
19.0,45,23,0,0,0,7,0,0
23.0,48,29,2,1,1,7,0,1
13.0,33,28,1,2,1,4,0,0
24.0,57,28,2,5,1,7,0,1
19.0,45,27,1,0,1,7,0,0
21.0,57,27,0,4,1,7,0,0
22.0,45,20,0,0,1,7,0,0
20.0,48,25,2,5,1,7,0,1
14.0,24,25,1,1,1,7,0,0
21.0,57,30,1,3,0,7,0,0
20.0,39,21,2,5,1,4,0,1
19.0,39,28,2,3,1,7,0,1
18.0,15,19,2,0,1,7,0,1
20.0,45,23,0,3,0,5,0,0
21.0,33,23,2,5,0,7,0,1
20.0,30,26,2,3,0,7,0,1
17.0,57,28,1,3,1,7,0,0
11.5,30,24,2,6,1,4,0,1
17.0,48,29,2,2,1,4,0,1
21.0,24,26,1,5,0,7,0,0
13.5,42,22,2,6,0,7,0,1
25.0,57,28,0,3,1,7,0,0
7.0,33,25,1,6,0,6,0,0
21.0,33,26,0,2,1,7,0,0
6.25,24,27,1,6,0,7,0,0
12.5,36,30,1,6,1,7,0,0
22.0,30,23,2,0,1,7,0,1
25.0,63,31,0,2,1,7,0,0
12.0,39,25,0,4,1,8,0,0
8.0,57,27,1,6,1,4,0,0
19.0,57,26,0,2,0,7,0,0
14.0,24,31,1,2,1,4,0,0
8.0,36,22,1,2,1,4,0,0
24.0,15,28,2,0,1,7,0,1
11.0,24,27,1,5,1,7,0,0
24.0,33,25,2,5,1,7,0,1
21.0,57,27,0,2,1,5,0,0
22.0,57,29,0,1,1,7,0,0
22.0,69,28,0,2,1,7,0,0
10.0,36,25,1,2,1,9,0,0
22.0,39,26,2,5,1,7,0,1
22.0,21,21,0,4,0,7,0,0
22.0,48,25,2,2,1,7,0,1
24.0,57,27,2,4,1,7,0,1
21.0,39,24,0,0,0,7,0,0
23.0,39,24,2,2,1,7,0,1
22.0,57,25,0,0,1,7,0,0
13.0,12,21,1,3,1,7,0,0
6.0,36,28,1,6,1,4,0,0
22.0,57,27,0,4,1,4,0,0
24.0,57,28,0,5,1,7,0,0
21.0,15,21,2,0,0,7,0,1
0.0,9,25,1,4,1,7,0,0
22.0,33,24,1,5,1,7,0,0
6.25,48,27,1,6,1,4,0,0
24.0,57,30,2,0,1,7,0,1
24.0,45,26,0,5,1,7,0,0
13.0,24,24,1,5,1,7,0,0
20.0,57,25,0,5,1,7,0,0
13.0,0,0,1,2,1,4,0,0
22.0,69,28,0,2,1,7,0,0
25.0,15,30,2,1,1,7,0,1
15.0,45,29,1,6,1,4,0,0
19.0,39,21,2,3,1,7,0,1
7.0,36,29,1,4,1,4,0,0
13.0,39,25,2,1,0,5,0,1
12.0,48,27,1,3,1,4,0,0
14.0,39,24,0,2,1,4,0,0
25.0,12,26,0,2,1,4,0,0
20.0,30,25,2,2,0,7,0,1
23.0,39,29,2,4,0,7,0,1
16.0,39,25,2,0,0,7,0,1
3.0,21,24,1,6,0,0,0,0
20.0,21,25,1,0,1,7,0,0
16.0,45,27,1,3,1,4,0,0
8.5,57,25,0,6,1,7,0,0
19.0,57,27,0,3,0,7,0,0
15.0,45,22,0,2,1,7,0,0
13.0,15,18,2,2,1,7,0,1
16.0,36,25,1,5,1,4,0,0
23.0,57,26,0,2,0,7,0,0
22.0,48,26,2,5,0,7,0,1
16.0,42,24,0,3,1,5,0,0
16.0,45,26,1,5,1,2,0,0
20.0,33,24,0,5,0,5,0,0
24.0,39,20,0,5,1,7,0,0
18.0,12,26,1,1,1,4,0,0
17.0,51,23,0,2,1,7,0,0
17.0,39,25,0,3,1,7,0,0
22.0,51,25,0,3,1,7,0,0
13.0,36,28,1,2,1,4,0,0
14.0,33,24,0,4,1,4,0,0
21.0,57,29,1,2,1,9,0,0
13.0,30,27,2,0,0,5,0,1
18.0,15,23,2,0,0,7,0,1
14.0,30,19,2,3,0,4,0,1
19.0,24,24,0,2,0,7,0,0
6.75,33,23,1,6,1,7,0,0
18.0,21,21,1,2,1,4,0,0
22.0,39,25,2,1,1,7,0,1
24.0,30,24,2,0,0,7,0,1
17.0,30,19,2,4,0,7,0,1
22.0,45,25,0,4,0,7,0,0
9.25,12,26,1,6,1,8,0,0
19.0,39,24,2,4,1,7,0,1
19.0,39,25,2,3,1,4,0,0
22.0,9,28,2,4,1,7,0,1
16.0,30,25,2,4,0,7,0,1
7.5,24,29,1,6,1,7,0,0
24.0,48,30,2,2,0,7,0,1
20.0,48,20,2,2,0,7,0,1
12.0,24,24,1,1,1,5,0,0
9.5,48,23,2,6,1,7,0,1
10.0,12,23,1,3,1,4,0,0
16.0,15,22,0,5,0,5,0,0
22.0,15,19,2,1,1,7,0,1
13.0,36,22,1,2,1,7,0,0
15.0,33,22,1,3,0,9,0,0
21.0,57,25,0,2,1,7,0,0
19.0,15,26,2,0,0,4,0,1
23.0,57,25,0,4,0,7,0,0
15.0,30,22,2,3,0,7,0,1
18.0,24,29,1,5,1,7,0,0
5.5,0,0,1,6,1,7,0,0
17.0,24,24,1,1,1,4,0,0
19.0,48,29,2,6,1,7,0,1
21.0,39,26,2,2,0,7,0,1
19.0,18,24,0,4,1,7,0,0
21.0,39,23,2,1,0,7,0,1
11.25,33,23,1,6,1,8,0,0
14.5,18,23,0,6,1,5,0,0
10.25,12,26,1,6,1,7,0,0
17.0,57,24,1,2,1,7,0,0
16.0,30,21,2,3,0,7,0,1
23.0,48,23,2,0,0,7,0,1
15.0,36,24,1,0,1,5,0,0
16.0,18,21,0,5,1,7,0,0
13.0,48,27,2,1,0,7,0,1
10.0,57,27,1,6,1,7,0,0
2.75,48,28,1,6,1,6,0,0
24.0,39,26,0,5,1,7,0,0
17.0,24,27,1,1,1,7,0,0
17.0,57,23,1,1,1,4,0,0
15.0,21,21,0,4,1,8,0,0
25.0,39,25,2,5,1,7,0,1
19.0,30,27,2,2,0,9,0,1
14.0,36,28,1,3,1,9,0,0
8.0,24,27,0,6,1,5,0,0
16.0,24,22,1,3,1,4,0,0
10.0,45,26,1,6,1,8,0,0
5.5,24,22,2,6,1,7,0,1
17.0,33,23,2,4,0,5,0,1
17.0,24,25,2,4,1,7,0,1
4.0,0,0,1,5,0,6,0,0
14.0,39,31,2,2,1,5,0,1
11.75,36,25,1,6,1,7,0,0
20.0,48,27,2,2,0,7,0,1
13.0,21,26,1,4,0,7,0,0
21.0,24,25,2,5,0,7,0,1
22.0,36,26,1,5,1,7,0,0
22.0,57,26,0,1,1,7,0,0
20.0,9,24,0,4,1,7,0,0
25.0,57,30,2,0,1,7,0,1
13.0,33,21,0,3,1,4,0,0
11.0,36,27,1,4,1,8,0,0
19.0,45,26,0,0,1,7,0,0
15.0,57,24,1,4,1,8,0,0
14.0,45,22,0,3,0,7,0,0
9.0,24,22,1,6,1,7,0,0
19.0,39,25,2,3,1,4,0,1
14.0,15,20,2,4,1,4,0,1
24.0,39,22,2,3,0,7,0,1
25.0,57,29,2,5,1,7,0,1
17.0,15,24,2,0,1,7,0,1
16.0,36,24,0,1,1,4,0,0
11.0,12,19,1,4,1,4,0,0
21.0,21,22,0,4,1,7,0,0
24.0,48,26,2,1,1,5,0,1
19.0,0,0,1,5,1,7,0,0
15.0,30,21,2,0,1,7,0,1
13.0,36,24,1,3,1,4,0,0
9.0,12,18,1,4,1,2,0,0
20.0,48,25,2,4,1,7,0,1
9.0,12,27,0,3,1,5,0,0
20.0,36,26,1,1,1,4,0,0
15.0,39,21,2,2,0,9,0,1
14.0,12,24,1,1,1,7,0,0
24.0,9,30,2,1,0,7,0,1
24.0,57,29,2,2,1,7,0,1
24.0,57,27,0,4,1,7,0,0
17.0,45,23,0,0,0,8,0,0
11.0,24,22,2,1,0,5,0,1
5.75,36,27,1,6,1,8,0,0
19.0,39,27,2,3,0,7,0,0
19.0,33,25,1,5,1,4,0,0
12.0,15,18,2,0,1,7,0,1
22.0,48,27,1,4,1,7,0,0
17.0,15,18,2,0,0,7,0,1
9.5,57,26,1,6,1,7,0,0
12.0,18,23,0,1,0,5,0,0
19.0,48,22,2,2,1,7,0,1
11.0,15,21,2,0,0,7,0,1
16.0,0,0,1,5,1,5,0,0
16.0,57,28,1,2,1,9,0,0
13.0,36,24,1,3,1,4,0,0
20.0,57,25,0,1,1,7,0,0
24.0,57,28,0,0,1,7,0,0
19.0,30,24,2,1,1,7,0,1
17.0,57,24,0,3,1,4,0,0
17.0,24,22,0,2,1,7,0,0
15.0,21,24,0,0,1,5,0,0
17.0,39,24,2,3,1,4,0,1
22.0,33,21,0,4,1,7,0,0
24.0,57,29,1,3,0,7,0,0
17.0,0,0,2,1,1,7,0,1
12.0,57,27,1,1,1,2,0,0
24.0,57,25,0,5,1,7,0,0
15.0,48,26,1,2,1,7,0,0
0.0,12,21,1,6,1,7,0,0
17.0,24,23,1,1,1,0,0,0
17.0,57,30,1,5,1,7,0,0
17.0,36,24,1,3,1,9,0,0
21.0,57,26,0,2,1,5,0,0
16.0,24,20,0,1,1,7,0,0
15.0,24,25,1,3,1,4,0,0
5.5,45,27,1,6,1,7,0,0
18.0,57,26,0,2,0,7,0,0
12.5,39,28,2,6,1,7,0,1
17.0,24,21,1,4,1,7,0,0
10.0,18,21,0,1,0,7,0,0
16.0,39,27,2,2,0,7,0,1
22.0,57,29,0,0,0,7,0,0
15.0,24,20,0,3,1,4,0,0
18.0,21,23,0,0,0,5,0,0
14.0,21,27,1,3,1,4,0,0
16.0,33,23,1,1,1,7,0,0
21.0,57,23,0,3,1,7,0,0
21.0,48,23,2,1,0,7,0,1
24.0,51,24,0,4,0,5,0,0
17.0,48,26,2,2,0,7,0,1
19.0,45,25,0,1,0,7,0,0
7.25,12,18,0,6,1,7,0,0
25.0,57,29,2,1,1,7,0,1
21.0,24,19,2,0,1,7,0,1
10.0,30,24,2,0,0,7,0,1
24.0,9,28,0,5,1,7,0,0
23.0,57,30,2,0,1,7,0,1
18.0,39,24,0,4,1,4,0,0
22.0,48,25,2,0,0,7,0,1
19.0,57,30,1,3,1,7,0,0
18.0,48,27,1,3,1,7,0,0
14.5,48,25,2,6,0,7,0,1
19.0,30,27,2,2,0,7,0,1
25.0,48,25,2,3,1,4,0,1
17.0,27,23,0,5,1,7,0,0
22.0,57,27,0,3,1,5,0,0
23.0,57,24,0,3,1,7,0,0
12.0,48,23,1,4,1,2,0,0
18.0,30,22,2,0,1,7,0,1
17.0,24,25,1,1,1,4,0,0
13.0,15,22,2,0,1,7,0,1
16.0,48,26,1,3,1,4,0,0
19.0,48,27,2,2,0,5,0,1
16.0,30,21,2,1,0,7,0,1
22.0,12,29,0,2,1,7,0,0
23.0,57,30,1,4,1,7,0,0
17.0,36,29,1,1,1,4,0,0
17.0,9,24,0,0,1,7,0,0
22.0,57,28,2,4,0,7,0,1
9.5,39,20,2,6,0,7,0,1
15.0,36,25,1,4,0,6,0,0
15.0,39,21,0,1,0,5,0,0
17.0,30,21,0,3,1,4,0,0
24.0,51,24,0,0,1,7,0,0
10.0,24,23,2,1,0,8,0,1
11.0,36,29,1,3,1,7,0,0
18.0,33,28,1,2,0,7,0,0
14.0,21,27,1,3,1,4,0,0
11.0,24,20,1,0,1,7,0,0
13.0,36,26,0,1,0,5,0,0
10.75,18,21,0,6,1,7,0,0
14.0,24,22,1,4,1,4,0,0
14.5,39,27,0,6,0,7,0,0
25.0,48,28,2,1,1,7,0,1
19.0,0,0,0,4,1,7,0,0
19.0,45,21,0,0,0,7,0,0
12.75,57,29,0,6,1,7,0,0
10.0,24,23,1,5,1,4,0,0
16.0,48,27,1,1,1,7,0,0
22.0,30,22,0,5,0,7,0,0
24.0,57,30,0,3,1,7,0,0
22.0,48,23,2,3,0,7,0,1
12.75,48,27,2,6,0,5,0,1
11.75,12,25,1,6,1,2,0,0
23.0,48,29,2,2,0,7,0,1
15.0,24,27,1,3,1,4,0,0
15.5,48,26,2,6,0,7,0,1
11.0,24,23,1,3,1,4,0,0
24.0,57,28,2,3,1,7,0,1
22.0,27,22,0,4,0,5,0,0
10.0,12,30,1,4,1,1,0,0
23.0,24,28,2,4,1,7,0,1
24.0,45,31,1,4,1,7,0,0
7.25,24,24,1,6,1,4,0,0
19.0,57,24,0,3,0,7,0,0
24.0,48,24,2,1,1,7,0,1
23.0,39,25,2,0,0,7,0,1
18.0,57,27,1,3,1,4,0,0
5.0,24,29,1,6,1,0,0,0
9.0,36,23,1,3,1,4,0,0
17.0,39,26,0,1,0,7,0,0
10.0,36,24,1,3,0,9,0,0
8.0,24,23,1,4,1,8,0,0
23.0,39,23,2,3,1,7,0,1
23.0,39,30,2,1,1,7,0,1
23.0,57,25,0,4,1,7,0,0
20.0,57,30,0,0,1,5,0,0
10.5,51,25,0,6,0,5,0,0
15.0,33,22,1,3,1,4,0,0
22.0,57,25,0,3,0,7,0,0
17.0,21,21,0,5,0,7,0,0
20.0,36,26,0,3,1,7,0,0
16.0,24,23,1,1,1,4,0,0
16.0,15,19,2,2,0,7,0,1
13.0,21,23,1,2,1,7,0,0
18.0,57,25,1,3,1,4,0,0
9.75,33,25,0,6,1,7,0,0
17.0,30,20,2,1,0,7,0,1
9.5,57,25,0,6,1,7,0,0
10.75,33,29,1,6,1,7,0,0
23.0,63,29,0,2,1,7,0,0
11.5,12,24,1,6,0,7,0,0
16.0,48,22,2,4,1,7,0,1
18.0,45,27,0,1,1,5,0,0
14.0,12,25,1,1,0,7,0,0
16.0,30,25,0,1,1,7,0,0
16.0,36,25,1,3,1,4,0,0
9.0,45,26,0,6,1,7,0,0
25.0,57,28,0,4,1,7,0,0
13.0,45,27,1,3,1,4,0,0
9.0,36,23,0,2,1,7,0,0
14.0,24,23,1,5,1,7,0,0
15.0,45,23,0,0,0,5,0,0
16.0,15,18,2,0,1,4,0,1
17.0,57,24,0,1,1,7,0,0
21.0,18,22,0,2,1,7,0,0
23.0,45,24,0,5,1,7,0,0
19.0,15,20,2,3,0,4,0,1
12.0,36,25,1,2,0,9,0,0
24.0,57,26,0,2,1,7,0,0
